[1223/134451.761:ERROR:crash_report_database_win.cc(428)] unexpected header
[1225/183409.608:ERROR:crash_report_database_win.cc(428)] unexpected header
[1228/164701.287:ERROR:crash_report_database_win.cc(428)] unexpected header
[1228/164736.796:ERROR:crash_report_database_win.cc(428)] unexpected header
[1228/164857.583:ERROR:crash_report_database_win.cc(428)] unexpected header
[1228/164931.790:ERROR:crash_report_database_win.cc(428)] unexpected header
[1229/113833.668:ERROR:crash_report_database_win.cc(428)] unexpected header
[1229/113932.017:ERROR:crash_report_database_win.cc(428)] unexpected header
[1230/104249.210:ERROR:crash_report_database_win.cc(428)] unexpected header
[1230/104337.980:ERROR:crash_report_database_win.cc(428)] unexpected header
[1230/222113.507:ERROR:crash_report_database_win.cc(428)] unexpected header
